src/pipeline.vcd
$timescale 1 ns $end
$var reg 32 io_IBUS_in_data_data io_IBUS_in_data_data $end
$var reg 1 io_IBUS_in_data_valid io_IBUS_in_data_valid $end
$var reg 1 io_IBUS_out_address_ready io_IBUS_out_address_ready $end
$var reg 32 io_DBUS_in_data_data io_DBUS_in_data_data $end
$var reg 1 io_DBUS_in_data_valid io_DBUS_in_data_valid $end
$var reg 1 io_DBUS_out_data_ready io_DBUS_out_data_ready $end
$var reg 1 io_DBUS_out_address_ready io_DBUS_out_address_ready $end
$var reg 1 io_DBUS_out_control_ready io_DBUS_out_control_ready $end
$var reg 1 io_INTERRUPT_in_interrupt_id_data io_INTERRUPT_in_interrupt_id_data $end
$var reg 1 io_INTERRUPT_in_interrupt_id_valid io_INTERRUPT_in_interrupt_id_valid $end
$var reg 1 io_jtag_JTAG_TAP_in_mode_select_data io_jtag_JTAG_TAP_in_mode_select_data $end
$var reg 1 io_jtag_JTAG_TAP_in_mode_select_valid io_jtag_JTAG_TAP_in_mode_select_valid $end
$var reg 1 io_jtag_JTAG_TAP_in_clock_data io_jtag_JTAG_TAP_in_clock_data $end
$var reg 1 io_jtag_JTAG_TAP_in_clock_valid io_jtag_JTAG_TAP_in_clock_valid $end
$var reg 1 io_jtag_JTAG_TAP_in_reset_data io_jtag_JTAG_TAP_in_reset_data $end
$var reg 1 io_jtag_JTAG_TAP_in_reset_valid io_jtag_JTAG_TAP_in_reset_valid $end
$var reg 1 io_jtag_in_data_data io_jtag_in_data_data $end
$var reg 1 io_jtag_in_data_valid io_jtag_in_data_valid $end
$var reg 1 io_jtag_out_data_ready io_jtag_out_data_ready $end
$var reg 1 clk clk $end
$var reg 1 reset reset $end
$var reg 1 io_IBUS_in_data_ready io_IBUS_in_data_ready $end
$var reg 32 io_IBUS_out_address_data io_IBUS_out_address_data $end
$var reg 1 io_IBUS_out_address_valid io_IBUS_out_address_valid $end
$var reg 1 io_DBUS_in_data_ready io_DBUS_in_data_ready $end
$var reg 32 io_DBUS_out_data_data io_DBUS_out_data_data $end
$var reg 1 io_DBUS_out_data_valid io_DBUS_out_data_valid $end
$var reg 32 io_DBUS_out_address_data io_DBUS_out_address_data $end
$var reg 1 io_DBUS_out_address_valid io_DBUS_out_address_valid $end
$var reg 2 io_DBUS_out_control_data io_DBUS_out_control_data $end
$var reg 1 io_DBUS_out_control_valid io_DBUS_out_control_valid $end
$var reg 1 io_INTERRUPT_in_interrupt_id_ready io_INTERRUPT_in_interrupt_id_ready $end
$var reg 1 io_jtag_JTAG_TAP_in_mode_select_ready io_jtag_JTAG_TAP_in_mode_select_ready $end
$var reg 1 io_jtag_JTAG_TAP_in_clock_ready io_jtag_JTAG_TAP_in_clock_ready $end
$var reg 1 io_jtag_JTAG_TAP_in_reset_ready io_jtag_JTAG_TAP_in_reset_ready $end
$var reg 1 io_jtag_in_data_ready io_jtag_in_data_ready $end
$var reg 1 io_jtag_out_data_data io_jtag_out_data_data $end
$var reg 1 io_jtag_out_data_valid io_jtag_out_data_valid $end
$var reg 1 io_out_fwd_stall io_out_fwd_stall $end
$var reg 1 io_out_branch_stall io_out_branch_stall $end
$enddefinitions $end
#0
b10110011101100111011001110110011 io_IBUS_in_data_data
1io_IBUS_in_data_valid
1io_IBUS_out_address_ready
b10110011101100111011001110110011 io_DBUS_in_data_data
1io_DBUS_in_data_valid
1io_DBUS_out_data_ready
1io_DBUS_out_address_ready
1io_DBUS_out_control_ready
1io_INTERRUPT_in_interrupt_id_data
1io_INTERRUPT_in_interrupt_id_valid
1io_jtag_JTAG_TAP_in_mode_select_data
1io_jtag_JTAG_TAP_in_mode_select_valid
1io_jtag_JTAG_TAP_in_clock_data
1io_jtag_JTAG_TAP_in_clock_valid
1io_jtag_JTAG_TAP_in_reset_data
1io_jtag_JTAG_TAP_in_reset_valid
1io_jtag_in_data_data
1io_jtag_in_data_valid
1io_jtag_out_data_ready
0clk
1reset
1io_IBUS_in_data_ready
b11110111011111011011010101111011 io_IBUS_out_address_data
1io_IBUS_out_address_valid
1io_DBUS_in_data_ready
b10110011101100111011001110110011 io_DBUS_out_data_data
1io_DBUS_out_data_valid
b10110011101100111011001110110011 io_DBUS_out_address_data
1io_DBUS_out_address_valid
b10 io_DBUS_out_control_data
1io_DBUS_out_control_valid
1io_INTERRUPT_in_interrupt_id_ready
1io_jtag_JTAG_TAP_in_mode_select_ready
1io_jtag_JTAG_TAP_in_clock_ready
1io_jtag_JTAG_TAP_in_reset_ready
1io_jtag_in_data_ready
1io_jtag_out_data_data
1io_jtag_out_data_valid
1io_out_fwd_stall
1io_out_branch_stall
#1
b10110011101100111011001110110011 io_IBUS_in_data_data
1io_IBUS_in_data_valid
1io_IBUS_out_address_ready
b10110011101100111011001110110011 io_DBUS_in_data_data
1io_DBUS_in_data_valid
1io_DBUS_out_data_ready
1io_DBUS_out_address_ready
1io_DBUS_out_control_ready
1io_INTERRUPT_in_interrupt_id_data
1io_INTERRUPT_in_interrupt_id_valid
1io_jtag_JTAG_TAP_in_mode_select_data
1io_jtag_JTAG_TAP_in_mode_select_valid
1io_jtag_JTAG_TAP_in_clock_data
1io_jtag_JTAG_TAP_in_clock_valid
1io_jtag_JTAG_TAP_in_reset_data
1io_jtag_JTAG_TAP_in_reset_valid
1io_jtag_in_data_data
1io_jtag_in_data_valid
1io_jtag_out_data_ready
1clk
1reset
1io_IBUS_in_data_ready
b11110111011111011011010101111011 io_IBUS_out_address_data
1io_IBUS_out_address_valid
1io_DBUS_in_data_ready
b00000000000000000000000000000000 io_DBUS_out_data_data
1io_DBUS_out_data_valid
b00000000000000000000000000000000 io_DBUS_out_address_data
1io_DBUS_out_address_valid
b10 io_DBUS_out_control_data
1io_DBUS_out_control_valid
1io_INTERRUPT_in_interrupt_id_ready
1io_jtag_JTAG_TAP_in_mode_select_ready
1io_jtag_JTAG_TAP_in_clock_ready
1io_jtag_JTAG_TAP_in_reset_ready
1io_jtag_in_data_ready
1io_jtag_out_data_data
1io_jtag_out_data_valid
0io_out_fwd_stall
0io_out_branch_stall
#2
b11111111111111111111111111111111 io_IBUS_in_data_data
1io_IBUS_in_data_valid
1io_IBUS_out_address_ready
b11101101000000000000000000000001 io_DBUS_in_data_data
1io_DBUS_in_data_valid
1io_DBUS_out_data_ready
1io_DBUS_out_address_ready
1io_DBUS_out_control_ready
0io_INTERRUPT_in_interrupt_id_data
0io_INTERRUPT_in_interrupt_id_valid
0io_jtag_JTAG_TAP_in_mode_select_data
0io_jtag_JTAG_TAP_in_mode_select_valid
0io_jtag_JTAG_TAP_in_clock_data
0io_jtag_JTAG_TAP_in_clock_valid
0io_jtag_JTAG_TAP_in_reset_data
0io_jtag_JTAG_TAP_in_reset_valid
0io_jtag_in_data_data
0io_jtag_in_data_valid
0io_jtag_out_data_ready
0clk
0reset
1io_IBUS_in_data_ready
b00000000000000000000000000000000 io_IBUS_out_address_data
1io_IBUS_out_address_valid
1io_DBUS_in_data_ready
b00000000000000000000000000000000 io_DBUS_out_data_data
1io_DBUS_out_data_valid
b00000000000000000000000000000000 io_DBUS_out_address_data
1io_DBUS_out_address_valid
b10 io_DBUS_out_control_data
1io_DBUS_out_control_valid
0io_INTERRUPT_in_interrupt_id_ready
0io_jtag_JTAG_TAP_in_mode_select_ready
0io_jtag_JTAG_TAP_in_clock_ready
0io_jtag_JTAG_TAP_in_reset_ready
0io_jtag_in_data_ready
0io_jtag_out_data_data
1io_jtag_out_data_valid
0io_out_fwd_stall
0io_out_branch_stall
#3
b11111111111111111111111111111111 io_IBUS_in_data_data
1io_IBUS_in_data_valid
1io_IBUS_out_address_ready
b11101101000000000000000000000001 io_DBUS_in_data_data
1io_DBUS_in_data_valid
1io_DBUS_out_data_ready
1io_DBUS_out_address_ready
1io_DBUS_out_control_ready
0io_INTERRUPT_in_interrupt_id_data
0io_INTERRUPT_in_interrupt_id_valid
0io_jtag_JTAG_TAP_in_mode_select_data
0io_jtag_JTAG_TAP_in_mode_select_valid
0io_jtag_JTAG_TAP_in_clock_data
0io_jtag_JTAG_TAP_in_clock_valid
0io_jtag_JTAG_TAP_in_reset_data
0io_jtag_JTAG_TAP_in_reset_valid
0io_jtag_in_data_data
0io_jtag_in_data_valid
0io_jtag_out_data_ready
1clk
0reset
1io_IBUS_in_data_ready
b00100000000000000000000000000000 io_IBUS_out_address_data
1io_IBUS_out_address_valid
0io_DBUS_in_data_ready
b00000000000000000000000000000000 io_DBUS_out_data_data
0io_DBUS_out_data_valid
b00000000000000000000000000000000 io_DBUS_out_address_data
0io_DBUS_out_address_valid
b00 io_DBUS_out_control_data
1io_DBUS_out_control_valid
0io_INTERRUPT_in_interrupt_id_ready
0io_jtag_JTAG_TAP_in_mode_select_ready
0io_jtag_JTAG_TAP_in_clock_ready
0io_jtag_JTAG_TAP_in_reset_ready
0io_jtag_in_data_ready
0io_jtag_out_data_data
1io_jtag_out_data_valid
0io_out_fwd_stall
0io_out_branch_stall
#4
b11100111000000010000000000000000 io_IBUS_in_data_data
1io_IBUS_in_data_valid
1io_IBUS_out_address_ready
b11000100100000000000000000000000 io_DBUS_in_data_data
0io_DBUS_in_data_valid
0io_DBUS_out_data_ready
0io_DBUS_out_address_ready
1io_DBUS_out_control_ready
0io_INTERRUPT_in_interrupt_id_data
0io_INTERRUPT_in_interrupt_id_valid
0io_jtag_JTAG_TAP_in_mode_select_data
0io_jtag_JTAG_TAP_in_mode_select_valid
0io_jtag_JTAG_TAP_in_clock_data
0io_jtag_JTAG_TAP_in_clock_valid
0io_jtag_JTAG_TAP_in_reset_data
0io_jtag_JTAG_TAP_in_reset_valid
0io_jtag_in_data_data
0io_jtag_in_data_valid
0io_jtag_out_data_ready
0clk
0reset
1io_IBUS_in_data_ready
b00100000000000000000000000000000 io_IBUS_out_address_data
1io_IBUS_out_address_valid
0io_DBUS_in_data_ready
b00000000000000000000000000000000 io_DBUS_out_data_data
0io_DBUS_out_data_valid
b00000000000000000000000000000000 io_DBUS_out_address_data
0io_DBUS_out_address_valid
b00 io_DBUS_out_control_data
1io_DBUS_out_control_valid
0io_INTERRUPT_in_interrupt_id_ready
0io_jtag_JTAG_TAP_in_mode_select_ready
0io_jtag_JTAG_TAP_in_clock_ready
0io_jtag_JTAG_TAP_in_reset_ready
0io_jtag_in_data_ready
0io_jtag_out_data_data
1io_jtag_out_data_valid
0io_out_fwd_stall
0io_out_branch_stall
#5
b11100111000000010000000000000000 io_IBUS_in_data_data
1io_IBUS_in_data_valid
1io_IBUS_out_address_ready
b11000100100000000000000000000000 io_DBUS_in_data_data
0io_DBUS_in_data_valid
0io_DBUS_out_data_ready
0io_DBUS_out_address_ready
1io_DBUS_out_control_ready
0io_INTERRUPT_in_interrupt_id_data
0io_INTERRUPT_in_interrupt_id_valid
0io_jtag_JTAG_TAP_in_mode_select_data
0io_jtag_JTAG_TAP_in_mode_select_valid
0io_jtag_JTAG_TAP_in_clock_data
0io_jtag_JTAG_TAP_in_clock_valid
0io_jtag_JTAG_TAP_in_reset_data
0io_jtag_JTAG_TAP_in_reset_valid
0io_jtag_in_data_data
0io_jtag_in_data_valid
0io_jtag_out_data_ready
1clk
0reset
1io_IBUS_in_data_ready
b00010000000000000000000000000000 io_IBUS_out_address_data
1io_IBUS_out_address_valid
0io_DBUS_in_data_ready
b00000000000000000000000000000000 io_DBUS_out_data_data
0io_DBUS_out_data_valid
b00000000000000000000000000000000 io_DBUS_out_address_data
0io_DBUS_out_address_valid
b00 io_DBUS_out_control_data
1io_DBUS_out_control_valid
0io_INTERRUPT_in_interrupt_id_ready
0io_jtag_JTAG_TAP_in_mode_select_ready
0io_jtag_JTAG_TAP_in_clock_ready
0io_jtag_JTAG_TAP_in_reset_ready
0io_jtag_in_data_ready
0io_jtag_out_data_data
1io_jtag_out_data_valid
0io_out_fwd_stall
1io_out_branch_stall
#6
b11111111111111111111111111111111 io_IBUS_in_data_data
1io_IBUS_in_data_valid
1io_IBUS_out_address_ready
b11000100100000000000000000000000 io_DBUS_in_data_data
0io_DBUS_in_data_valid
0io_DBUS_out_data_ready
0io_DBUS_out_address_ready
1io_DBUS_out_control_ready
0io_INTERRUPT_in_interrupt_id_data
0io_INTERRUPT_in_interrupt_id_valid
0io_jtag_JTAG_TAP_in_mode_select_data
0io_jtag_JTAG_TAP_in_mode_select_valid
0io_jtag_JTAG_TAP_in_clock_data
0io_jtag_JTAG_TAP_in_clock_valid
0io_jtag_JTAG_TAP_in_reset_data
0io_jtag_JTAG_TAP_in_reset_valid
0io_jtag_in_data_data
0io_jtag_in_data_valid
0io_jtag_out_data_ready
0clk
0reset
1io_IBUS_in_data_ready
b00010000000000000000000000000000 io_IBUS_out_address_data
1io_IBUS_out_address_valid
0io_DBUS_in_data_ready
b00000000000000000000000000000000 io_DBUS_out_data_data
0io_DBUS_out_data_valid
b00000000000000000000000000000000 io_DBUS_out_address_data
0io_DBUS_out_address_valid
b00 io_DBUS_out_control_data
1io_DBUS_out_control_valid
0io_INTERRUPT_in_interrupt_id_ready
0io_jtag_JTAG_TAP_in_mode_select_ready
0io_jtag_JTAG_TAP_in_clock_ready
0io_jtag_JTAG_TAP_in_reset_ready
0io_jtag_in_data_ready
0io_jtag_out_data_data
1io_jtag_out_data_valid
0io_out_fwd_stall
1io_out_branch_stall
#7
b11111111111111111111111111111111 io_IBUS_in_data_data
1io_IBUS_in_data_valid
1io_IBUS_out_address_ready
b11000100100000000000000000000000 io_DBUS_in_data_data
0io_DBUS_in_data_valid
0io_DBUS_out_data_ready
0io_DBUS_out_address_ready
1io_DBUS_out_control_ready
0io_INTERRUPT_in_interrupt_id_data
0io_INTERRUPT_in_interrupt_id_valid
0io_jtag_JTAG_TAP_in_mode_select_data
0io_jtag_JTAG_TAP_in_mode_select_valid
0io_jtag_JTAG_TAP_in_clock_data
0io_jtag_JTAG_TAP_in_clock_valid
0io_jtag_JTAG_TAP_in_reset_data
0io_jtag_JTAG_TAP_in_reset_valid
0io_jtag_in_data_data
0io_jtag_in_data_valid
0io_jtag_out_data_ready
1clk
0reset
1io_IBUS_in_data_ready
b10110011101100111011001110110011 io_IBUS_out_address_data
1io_IBUS_out_address_valid
0io_DBUS_in_data_ready
b10110011101100111011001110110011 io_DBUS_out_data_data
0io_DBUS_out_data_valid
b10110011101100111011001110110011 io_DBUS_out_address_data
0io_DBUS_out_address_valid
b00 io_DBUS_out_control_data
1io_DBUS_out_control_valid
0io_INTERRUPT_in_interrupt_id_ready
0io_jtag_JTAG_TAP_in_mode_select_ready
0io_jtag_JTAG_TAP_in_clock_ready
0io_jtag_JTAG_TAP_in_reset_ready
0io_jtag_in_data_ready
0io_jtag_out_data_data
1io_jtag_out_data_valid
0io_out_fwd_stall
0io_out_branch_stall
#8
b11111111111111111111111111111111 io_IBUS_in_data_data
1io_IBUS_in_data_valid
1io_IBUS_out_address_ready
b11000100100000000000000000000000 io_DBUS_in_data_data
0io_DBUS_in_data_valid
0io_DBUS_out_data_ready
0io_DBUS_out_address_ready
1io_DBUS_out_control_ready
0io_INTERRUPT_in_interrupt_id_data
0io_INTERRUPT_in_interrupt_id_valid
0io_jtag_JTAG_TAP_in_mode_select_data
0io_jtag_JTAG_TAP_in_mode_select_valid
0io_jtag_JTAG_TAP_in_clock_data
0io_jtag_JTAG_TAP_in_clock_valid
0io_jtag_JTAG_TAP_in_reset_data
0io_jtag_JTAG_TAP_in_reset_valid
0io_jtag_in_data_data
0io_jtag_in_data_valid
0io_jtag_out_data_ready
0clk
0reset
1io_IBUS_in_data_ready
b10110011101100111011001110110011 io_IBUS_out_address_data
1io_IBUS_out_address_valid
0io_DBUS_in_data_ready
b10110011101100111011001110110011 io_DBUS_out_data_data
0io_DBUS_out_data_valid
b10110011101100111011001110110011 io_DBUS_out_address_data
0io_DBUS_out_address_valid
b00 io_DBUS_out_control_data
1io_DBUS_out_control_valid
0io_INTERRUPT_in_interrupt_id_ready
0io_jtag_JTAG_TAP_in_mode_select_ready
0io_jtag_JTAG_TAP_in_clock_ready
0io_jtag_JTAG_TAP_in_reset_ready
0io_jtag_in_data_ready
0io_jtag_out_data_data
1io_jtag_out_data_valid
0io_out_fwd_stall
0io_out_branch_stall
#9
b11111111111111111111111111111111 io_IBUS_in_data_data
1io_IBUS_in_data_valid
1io_IBUS_out_address_ready
b11000100100000000000000000000000 io_DBUS_in_data_data
0io_DBUS_in_data_valid
0io_DBUS_out_data_ready
0io_DBUS_out_address_ready
1io_DBUS_out_control_ready
0io_INTERRUPT_in_interrupt_id_data
0io_INTERRUPT_in_interrupt_id_valid
0io_jtag_JTAG_TAP_in_mode_select_data
0io_jtag_JTAG_TAP_in_mode_select_valid
0io_jtag_JTAG_TAP_in_clock_data
0io_jtag_JTAG_TAP_in_clock_valid
0io_jtag_JTAG_TAP_in_reset_data
0io_jtag_JTAG_TAP_in_reset_valid
0io_jtag_in_data_data
0io_jtag_in_data_valid
0io_jtag_out_data_ready
1clk
0reset
1io_IBUS_in_data_ready
b10001011101100111011001110110011 io_IBUS_out_address_data
1io_IBUS_out_address_valid
0io_DBUS_in_data_ready
b00000000000000000000000000000000 io_DBUS_out_data_data
0io_DBUS_out_data_valid
b10110011101100111011001110110011 io_DBUS_out_address_data
0io_DBUS_out_address_valid
b00 io_DBUS_out_control_data
1io_DBUS_out_control_valid
0io_INTERRUPT_in_interrupt_id_ready
0io_jtag_JTAG_TAP_in_mode_select_ready
0io_jtag_JTAG_TAP_in_clock_ready
0io_jtag_JTAG_TAP_in_reset_ready
0io_jtag_in_data_ready
0io_jtag_out_data_data
1io_jtag_out_data_valid
0io_out_fwd_stall
0io_out_branch_stall
#10
b11111111111111111111111111111111 io_IBUS_in_data_data
1io_IBUS_in_data_valid
1io_IBUS_out_address_ready
b11000100100000000000000000000000 io_DBUS_in_data_data
0io_DBUS_in_data_valid
0io_DBUS_out_data_ready
0io_DBUS_out_address_ready
1io_DBUS_out_control_ready
0io_INTERRUPT_in_interrupt_id_data
0io_INTERRUPT_in_interrupt_id_valid
0io_jtag_JTAG_TAP_in_mode_select_data
0io_jtag_JTAG_TAP_in_mode_select_valid
0io_jtag_JTAG_TAP_in_clock_data
0io_jtag_JTAG_TAP_in_clock_valid
0io_jtag_JTAG_TAP_in_reset_data
0io_jtag_JTAG_TAP_in_reset_valid
0io_jtag_in_data_data
0io_jtag_in_data_valid
0io_jtag_out_data_ready
0clk
0reset
1io_IBUS_in_data_ready
b10001011101100111011001110110011 io_IBUS_out_address_data
1io_IBUS_out_address_valid
0io_DBUS_in_data_ready
b00000000000000000000000000000000 io_DBUS_out_data_data
0io_DBUS_out_data_valid
b10110011101100111011001110110011 io_DBUS_out_address_data
0io_DBUS_out_address_valid
b00 io_DBUS_out_control_data
1io_DBUS_out_control_valid
0io_INTERRUPT_in_interrupt_id_ready
0io_jtag_JTAG_TAP_in_mode_select_ready
0io_jtag_JTAG_TAP_in_clock_ready
0io_jtag_JTAG_TAP_in_reset_ready
0io_jtag_in_data_ready
0io_jtag_out_data_data
1io_jtag_out_data_valid
0io_out_fwd_stall
0io_out_branch_stall
#11
b11111111111111111111111111111111 io_IBUS_in_data_data
1io_IBUS_in_data_valid
1io_IBUS_out_address_ready
b11000100100000000000000000000000 io_DBUS_in_data_data
0io_DBUS_in_data_valid
0io_DBUS_out_data_ready
0io_DBUS_out_address_ready
1io_DBUS_out_control_ready
0io_INTERRUPT_in_interrupt_id_data
0io_INTERRUPT_in_interrupt_id_valid
0io_jtag_JTAG_TAP_in_mode_select_data
0io_jtag_JTAG_TAP_in_mode_select_valid
0io_jtag_JTAG_TAP_in_clock_data
0io_jtag_JTAG_TAP_in_clock_valid
0io_jtag_JTAG_TAP_in_reset_data
0io_jtag_JTAG_TAP_in_reset_valid
0io_jtag_in_data_data
0io_jtag_in_data_valid
0io_jtag_out_data_ready
1clk
0reset
1io_IBUS_in_data_ready
b10101011101100111011001110110011 io_IBUS_out_address_data
1io_IBUS_out_address_valid
0io_DBUS_in_data_ready
b00000000000000000000000000000000 io_DBUS_out_data_data
0io_DBUS_out_data_valid
b00000000000000000000000000000000 io_DBUS_out_address_data
0io_DBUS_out_address_valid
b00 io_DBUS_out_control_data
1io_DBUS_out_control_valid
0io_INTERRUPT_in_interrupt_id_ready
0io_jtag_JTAG_TAP_in_mode_select_ready
0io_jtag_JTAG_TAP_in_clock_ready
0io_jtag_JTAG_TAP_in_reset_ready
0io_jtag_in_data_ready
0io_jtag_out_data_data
1io_jtag_out_data_valid
0io_out_fwd_stall
0io_out_branch_stall
#12
b11111111111111111111111111111111 io_IBUS_in_data_data
1io_IBUS_in_data_valid
1io_IBUS_out_address_ready
b11000100100000000000000000000000 io_DBUS_in_data_data
0io_DBUS_in_data_valid
0io_DBUS_out_data_ready
0io_DBUS_out_address_ready
1io_DBUS_out_control_ready
0io_INTERRUPT_in_interrupt_id_data
0io_INTERRUPT_in_interrupt_id_valid
0io_jtag_JTAG_TAP_in_mode_select_data
0io_jtag_JTAG_TAP_in_mode_select_valid
0io_jtag_JTAG_TAP_in_clock_data
0io_jtag_JTAG_TAP_in_clock_valid
0io_jtag_JTAG_TAP_in_reset_data
0io_jtag_JTAG_TAP_in_reset_valid
0io_jtag_in_data_data
0io_jtag_in_data_valid
0io_jtag_out_data_ready
0clk
0reset
1io_IBUS_in_data_ready
b10101011101100111011001110110011 io_IBUS_out_address_data
1io_IBUS_out_address_valid
0io_DBUS_in_data_ready
b00000000000000000000000000000000 io_DBUS_out_data_data
0io_DBUS_out_data_valid
b00000000000000000000000000000000 io_DBUS_out_address_data
0io_DBUS_out_address_valid
b00 io_DBUS_out_control_data
1io_DBUS_out_control_valid
0io_INTERRUPT_in_interrupt_id_ready
0io_jtag_JTAG_TAP_in_mode_select_ready
0io_jtag_JTAG_TAP_in_clock_ready
0io_jtag_JTAG_TAP_in_reset_ready
0io_jtag_in_data_ready
0io_jtag_out_data_data
1io_jtag_out_data_valid
0io_out_fwd_stall
0io_out_branch_stall
#13
b11111111111111111111111111111111 io_IBUS_in_data_data
1io_IBUS_in_data_valid
1io_IBUS_out_address_ready
b11000100100000000000000000000000 io_DBUS_in_data_data
0io_DBUS_in_data_valid
0io_DBUS_out_data_ready
0io_DBUS_out_address_ready
1io_DBUS_out_control_ready
0io_INTERRUPT_in_interrupt_id_data
0io_INTERRUPT_in_interrupt_id_valid
0io_jtag_JTAG_TAP_in_mode_select_data
0io_jtag_JTAG_TAP_in_mode_select_valid
0io_jtag_JTAG_TAP_in_clock_data
0io_jtag_JTAG_TAP_in_clock_valid
0io_jtag_JTAG_TAP_in_reset_data
0io_jtag_JTAG_TAP_in_reset_valid
0io_jtag_in_data_data
0io_jtag_in_data_valid
0io_jtag_out_data_ready
1clk
0reset
1io_IBUS_in_data_ready
b10011011101100111011001110110011 io_IBUS_out_address_data
1io_IBUS_out_address_valid
0io_DBUS_in_data_ready
b10110011101100111011001110110011 io_DBUS_out_data_data
0io_DBUS_out_data_valid
b10110011101100111011001110110011 io_DBUS_out_address_data
0io_DBUS_out_address_valid
b00 io_DBUS_out_control_data
1io_DBUS_out_control_valid
0io_INTERRUPT_in_interrupt_id_ready
0io_jtag_JTAG_TAP_in_mode_select_ready
0io_jtag_JTAG_TAP_in_clock_ready
0io_jtag_JTAG_TAP_in_reset_ready
0io_jtag_in_data_ready
0io_jtag_out_data_data
1io_jtag_out_data_valid
0io_out_fwd_stall
0io_out_branch_stall
#14
b11111111111111111111111111111111 io_IBUS_in_data_data
1io_IBUS_in_data_valid
1io_IBUS_out_address_ready
b11000100100000000000000000000000 io_DBUS_in_data_data
0io_DBUS_in_data_valid
0io_DBUS_out_data_ready
0io_DBUS_out_address_ready
1io_DBUS_out_control_ready
0io_INTERRUPT_in_interrupt_id_data
0io_INTERRUPT_in_interrupt_id_valid
0io_jtag_JTAG_TAP_in_mode_select_data
0io_jtag_JTAG_TAP_in_mode_select_valid
0io_jtag_JTAG_TAP_in_clock_data
0io_jtag_JTAG_TAP_in_clock_valid
0io_jtag_JTAG_TAP_in_reset_data
0io_jtag_JTAG_TAP_in_reset_valid
0io_jtag_in_data_data
0io_jtag_in_data_valid
0io_jtag_out_data_ready
0clk
0reset
1io_IBUS_in_data_ready
b10011011101100111011001110110011 io_IBUS_out_address_data
1io_IBUS_out_address_valid
0io_DBUS_in_data_ready
b10110011101100111011001110110011 io_DBUS_out_data_data
0io_DBUS_out_data_valid
b10110011101100111011001110110011 io_DBUS_out_address_data
0io_DBUS_out_address_valid
b00 io_DBUS_out_control_data
1io_DBUS_out_control_valid
0io_INTERRUPT_in_interrupt_id_ready
0io_jtag_JTAG_TAP_in_mode_select_ready
0io_jtag_JTAG_TAP_in_clock_ready
0io_jtag_JTAG_TAP_in_reset_ready
0io_jtag_in_data_ready
0io_jtag_out_data_data
1io_jtag_out_data_valid
0io_out_fwd_stall
0io_out_branch_stall
#15
b11111111111111111111111111111111 io_IBUS_in_data_data
1io_IBUS_in_data_valid
1io_IBUS_out_address_ready
b11000100100000000000000000000000 io_DBUS_in_data_data
0io_DBUS_in_data_valid
0io_DBUS_out_data_ready
0io_DBUS_out_address_ready
1io_DBUS_out_control_ready
0io_INTERRUPT_in_interrupt_id_data
0io_INTERRUPT_in_interrupt_id_valid
0io_jtag_JTAG_TAP_in_mode_select_data
0io_jtag_JTAG_TAP_in_mode_select_valid
0io_jtag_JTAG_TAP_in_clock_data
0io_jtag_JTAG_TAP_in_clock_valid
0io_jtag_JTAG_TAP_in_reset_data
0io_jtag_JTAG_TAP_in_reset_valid
0io_jtag_in_data_data
0io_jtag_in_data_valid
0io_jtag_out_data_ready
1clk
0reset
1io_IBUS_in_data_ready
b10111011101100111011001110110011 io_IBUS_out_address_data
1io_IBUS_out_address_valid
0io_DBUS_in_data_ready
b10110011101100111011001110110011 io_DBUS_out_data_data
0io_DBUS_out_data_valid
b10110011101100111011001110110011 io_DBUS_out_address_data
0io_DBUS_out_address_valid
b00 io_DBUS_out_control_data
1io_DBUS_out_control_valid
0io_INTERRUPT_in_interrupt_id_ready
0io_jtag_JTAG_TAP_in_mode_select_ready
0io_jtag_JTAG_TAP_in_clock_ready
0io_jtag_JTAG_TAP_in_reset_ready
0io_jtag_in_data_ready
0io_jtag_out_data_data
1io_jtag_out_data_valid
0io_out_fwd_stall
0io_out_branch_stall
